(export (version D)
  (design
    (source C:\Users\johcar\Documents\HW_dev\PT2065-10\Resources\PT2065-10.sch)
    (date "2021-11-29 09:57:50")
    (tool "Eeschema (5.1.8)-1")
    (sheet (number 1) (name /) (tstamps /)
      (title_block
        (title "10 Button controller")
        (company TAWI)
        (rev B)
        (date 2021-02-18)
        (source PT2065-10.sch)
        (comment (number 1) (value "Updatec from POC to Prototyp with smd comps."))
        (comment (number 2) (value ""))
        (comment (number 3) (value ""))
        (comment (number 4) (value "")))))
  (components
    (comp (ref SW6)
      (value Button6)
      (footprint Button_Switch_SMD:SW_SPST_Omron_B3FS-100xP)
      (datasheet http://www.apem.com/int/index.php?controller=attachment&id_attachment=1371)
      (libsource (lib Switches) (part SW_Push_Dual_tactile) (description ""))
      (sheetpath (names /) (tstamps /))
      (tstamp 5FBE401C))
    (comp (ref D1)
      (value Indicator)
      (footprint LED_SMD:LED_0805_2012Metric)
      (datasheet ~)
      (libsource (lib Device) (part LED) (description "Light emitting diode"))
      (sheetpath (names /) (tstamps /))
      (tstamp 602E266A))
    (comp (ref R2)
      (value 510)
      (footprint Resistor_SMD:R_0805_2012Metric_Pad1.20x1.40mm_HandSolder)
      (datasheet ~)
      (libsource (lib Device) (part R_Small) (description "Resistor, small symbol"))
      (sheetpath (names /) (tstamps /))
      (tstamp 602E5730))
    (comp (ref SW11)
      (value Keyswitch)
      (footprint Button_Switch_THT:SW_CuK_JS202011AQN_DPDT_Angled)
      (datasheet ~)
      (libsource (lib Switch) (part SW_Push_DPDT) (description "Momentary Switch, dual pole double throw"))
      (sheetpath (names /) (tstamps /))
      (tstamp 5FBE5CA0))
    (comp (ref Q1)
      (value BCP54-16)
      (footprint Package_TO_SOT_SMD:SOT-223)
      (datasheet https://diotec.com/tl_files/diotec/files/pdf/datasheets/bc337.pdf)
      (libsource (lib Transistor_BJT) (part BCP56) (description "1A Ic, 80V Vce, NPN Medium Power Transistor, SOT-223"))
      (sheetpath (names /) (tstamps /))
      (tstamp 6030D326))
    (comp (ref D2)
      (value Indicator)
      (footprint LED_SMD:LED_0805_2012Metric)
      (datasheet ~)
      (libsource (lib Device) (part LED) (description "Light emitting diode"))
      (sheetpath (names /) (tstamps /))
      (tstamp 6032705F))
    (comp (ref D3)
      (value Indicator)
      (footprint LED_SMD:LED_0805_2012Metric)
      (datasheet ~)
      (libsource (lib Device) (part LED) (description "Light emitting diode"))
      (sheetpath (names /) (tstamps /))
      (tstamp 603273EE))
    (comp (ref D4)
      (value Indicator)
      (footprint LED_SMD:LED_0805_2012Metric)
      (datasheet ~)
      (libsource (lib Device) (part LED) (description "Light emitting diode"))
      (sheetpath (names /) (tstamps /))
      (tstamp 60327991))
    (comp (ref D5)
      (value Indicator)
      (footprint LED_SMD:LED_0805_2012Metric)
      (datasheet ~)
      (libsource (lib Device) (part LED) (description "Light emitting diode"))
      (sheetpath (names /) (tstamps /))
      (tstamp 60327B72))
    (comp (ref D6)
      (value Indicator)
      (footprint LED_SMD:LED_0805_2012Metric)
      (datasheet ~)
      (libsource (lib Device) (part LED) (description "Light emitting diode"))
      (sheetpath (names /) (tstamps /))
      (tstamp 603282DA))
    (comp (ref D7)
      (value Indicator)
      (footprint LED_SMD:LED_0805_2012Metric)
      (datasheet ~)
      (libsource (lib Device) (part LED) (description "Light emitting diode"))
      (sheetpath (names /) (tstamps /))
      (tstamp 60328C21))
    (comp (ref D8)
      (value Indicator)
      (footprint LED_SMD:LED_0805_2012Metric)
      (datasheet ~)
      (libsource (lib Device) (part LED) (description "Light emitting diode"))
      (sheetpath (names /) (tstamps /))
      (tstamp 60328EBA))
    (comp (ref D9)
      (value Indicator)
      (footprint LED_SMD:LED_0805_2012Metric)
      (datasheet ~)
      (libsource (lib Device) (part LED) (description "Light emitting diode"))
      (sheetpath (names /) (tstamps /))
      (tstamp 6032909B))
    (comp (ref D10)
      (value Indicator)
      (footprint LED_SMD:LED_0805_2012Metric)
      (datasheet ~)
      (libsource (lib Device) (part LED) (description "Light emitting diode"))
      (sheetpath (names /) (tstamps /))
      (tstamp 603293B1))
    (comp (ref R1)
      (value 10k)
      (footprint Resistor_SMD:R_0805_2012Metric_Pad1.20x1.40mm_HandSolder)
      (datasheet ~)
      (libsource (lib Device) (part R_Small) (description "Resistor, small symbol"))
      (sheetpath (names /) (tstamps /))
      (tstamp 6030EDB8))
    (comp (ref J1)
      (value Handset)
      (footprint 8-215079-4:TE_8-215079-4)
      (fields
        (field (name MANUFACTURER) "TE Connectivity")
        (field (name PARTREV) S4)
        (field (name STANDARD) "Manufacturer Recommendation"))
      (libsource (lib 8-215079-4) (part 8-215079-4) (description ""))
      (sheetpath (names /) (tstamps /))
      (tstamp 602F12C0))
    (comp (ref R3)
      (value 5k)
      (footprint Resistor_SMD:R_0805_2012Metric_Pad1.20x1.40mm_HandSolder)
      (datasheet ~)
      (libsource (lib Device) (part R_Small) (description "Resistor, small symbol"))
      (sheetpath (names /) (tstamps /))
      (tstamp 60B8B043))
    (comp (ref SW1)
      (value Button1)
      (footprint Button_Switch_SMD:SW_SPST_Omron_B3FS-100xP)
      (datasheet http://www.apem.com/int/index.php?controller=attachment&id_attachment=1371)
      (libsource (lib Switches) (part SW_Push_Dual_tactile) (description ""))
      (sheetpath (names /) (tstamps /))
      (tstamp 61A87FE3))
    (comp (ref D11)
      (value 450mA)
      (footprint Package_TO_SOT_SMD:SOT-23_Handsoldering)
      (datasheet ~)
      (libsource (lib Device) (part D_x2_KCom_AAK) (description "Dual diode, common cathode on pin 3"))
      (sheetpath (names /) (tstamps /))
      (tstamp 61B3A80C))
    (comp (ref SW7)
      (value Button7)
      (footprint Button_Switch_SMD:SW_SPST_Omron_B3FS-100xP)
      (datasheet http://www.apem.com/int/index.php?controller=attachment&id_attachment=1371)
      (libsource (lib Switches) (part SW_Push_Dual_tactile) (description ""))
      (sheetpath (names /) (tstamps /))
      (tstamp 61B4F784))
    (comp (ref SW2)
      (value Button2)
      (footprint Button_Switch_SMD:SW_SPST_Omron_B3FS-100xP)
      (datasheet http://www.apem.com/int/index.php?controller=attachment&id_attachment=1371)
      (libsource (lib Switches) (part SW_Push_Dual_tactile) (description ""))
      (sheetpath (names /) (tstamps /))
      (tstamp 61B4FA56))
    (comp (ref D12)
      (value 450mA)
      (footprint Package_TO_SOT_SMD:SOT-23_Handsoldering)
      (datasheet ~)
      (libsource (lib Device) (part D_x2_KCom_AAK) (description "Dual diode, common cathode on pin 3"))
      (sheetpath (names /) (tstamps /))
      (tstamp 61B4FA7D))
    (comp (ref SW8)
      (value Button8)
      (footprint Button_Switch_SMD:SW_SPST_Omron_B3FS-100xP)
      (datasheet http://www.apem.com/int/index.php?controller=attachment&id_attachment=1371)
      (libsource (lib Switches) (part SW_Push_Dual_tactile) (description ""))
      (sheetpath (names /) (tstamps /))
      (tstamp 61B59878))
    (comp (ref SW3)
      (value Button3)
      (footprint Button_Switch_SMD:SW_SPST_Omron_B3FS-100xP)
      (datasheet http://www.apem.com/int/index.php?controller=attachment&id_attachment=1371)
      (libsource (lib Switches) (part SW_Push_Dual_tactile) (description ""))
      (sheetpath (names /) (tstamps /))
      (tstamp 61B59BEC))
    (comp (ref D13)
      (value 450mA)
      (footprint Package_TO_SOT_SMD:SOT-23_Handsoldering)
      (datasheet ~)
      (libsource (lib Device) (part D_x2_KCom_AAK) (description "Dual diode, common cathode on pin 3"))
      (sheetpath (names /) (tstamps /))
      (tstamp 61B59C13))
    (comp (ref SW9)
      (value Button9)
      (footprint Button_Switch_SMD:SW_SPST_Omron_B3FS-100xP)
      (datasheet http://www.apem.com/int/index.php?controller=attachment&id_attachment=1371)
      (libsource (lib Switches) (part SW_Push_Dual_tactile) (description ""))
      (sheetpath (names /) (tstamps /))
      (tstamp 61B59C20))
    (comp (ref SW4)
      (value Button4)
      (footprint Button_Switch_SMD:SW_SPST_Omron_B3FS-100xP)
      (datasheet http://www.apem.com/int/index.php?controller=attachment&id_attachment=1371)
      (libsource (lib Switches) (part SW_Push_Dual_tactile) (description ""))
      (sheetpath (names /) (tstamps /))
      (tstamp 61B59C48))
    (comp (ref D14)
      (value 450mA)
      (footprint Package_TO_SOT_SMD:SOT-23_Handsoldering)
      (datasheet ~)
      (libsource (lib Device) (part D_x2_KCom_AAK) (description "Dual diode, common cathode on pin 3"))
      (sheetpath (names /) (tstamps /))
      (tstamp 61B59C6F))
    (comp (ref SW10)
      (value Button10)
      (footprint Button_Switch_SMD:SW_SPST_Omron_B3FS-100xP)
      (datasheet http://www.apem.com/int/index.php?controller=attachment&id_attachment=1371)
      (libsource (lib Switches) (part SW_Push_Dual_tactile) (description ""))
      (sheetpath (names /) (tstamps /))
      (tstamp 61B646B2))
    (comp (ref SW5)
      (value Button5)
      (footprint Button_Switch_SMD:SW_SPST_Omron_B3FS-100xP)
      (datasheet http://www.apem.com/int/index.php?controller=attachment&id_attachment=1371)
      (libsource (lib Switches) (part SW_Push_Dual_tactile) (description ""))
      (sheetpath (names /) (tstamps /))
      (tstamp 61B64B6A))
    (comp (ref D15)
      (value 450mA)
      (footprint Package_TO_SOT_SMD:SOT-23_Handsoldering)
      (datasheet ~)
      (libsource (lib Device) (part D_x2_KCom_AAK) (description "Dual diode, common cathode on pin 3"))
      (sheetpath (names /) (tstamps /))
      (tstamp 61B64B91))
    (comp (ref R4)
      (value 4,3K)
      (footprint Resistor_SMD:R_0805_2012Metric_Pad1.20x1.40mm_HandSolder)
      (datasheet ~)
      (libsource (lib Device) (part R_Small) (description "Resistor, small symbol"))
      (sheetpath (names /) (tstamps /))
      (tstamp 61BACED1))
    (comp (ref R5)
      (value 4,3K)
      (footprint Resistor_SMD:R_0805_2012Metric_Pad1.20x1.40mm_HandSolder)
      (datasheet ~)
      (libsource (lib Device) (part R_Small) (description "Resistor, small symbol"))
      (sheetpath (names /) (tstamps /))
      (tstamp 61BAD681)))
  (libparts
    (libpart (lib 8-215079-4) (part 8-215079-4)
      (fields
        (field (name Reference) J)
        (field (name Value) 8-215079-4)
        (field (name Footprint) TE_8-215079-4)
        (field (name STANDARD) "Manufacturer Recommendations")
        (field (name PARTREV) Y1)
        (field (name MAXIMUM_PACKAGE_HEIGHT) "4.2 mm")
        (field (name MANUFACTURER) "TE Connectivity"))
      (pins
        (pin (num 1) (name 1) (type passive))
        (pin (num 2) (name 2) (type passive))
        (pin (num 3) (name 3) (type passive))
        (pin (num 4) (name 4) (type passive))
        (pin (num 5) (name 5) (type passive))
        (pin (num 6) (name 6) (type passive))
        (pin (num 7) (name 7) (type passive))
        (pin (num 8) (name 8) (type passive))
        (pin (num 9) (name 9) (type passive))
        (pin (num 10) (name 10) (type passive))
        (pin (num 11) (name 11) (type passive))
        (pin (num 12) (name 12) (type passive))
        (pin (num 13) (name 13) (type passive))
        (pin (num 14) (name 14) (type passive))))
    (libpart (lib Device) (part D_x2_KCom_AAK)
      (description "Dual diode, common cathode on pin 3")
      (docs ~)
      (fields
        (field (name Reference) D)
        (field (name Value) D_x2_KCom_AAK))
      (pins
        (pin (num 1) (name A) (type passive))
        (pin (num 2) (name A) (type passive))
        (pin (num 3) (name K) (type passive))))
    (libpart (lib Device) (part LED)
      (description "Light emitting diode")
      (docs ~)
      (footprints
        (fp LED*)
        (fp LED_SMD:*)
        (fp LED_THT:*))
      (fields
        (field (name Reference) D)
        (field (name Value) LED))
      (pins
        (pin (num 1) (name K) (type passive))
        (pin (num 2) (name A) (type passive))))
    (libpart (lib Device) (part R_Small)
      (description "Resistor, small symbol")
      (docs ~)
      (footprints
        (fp R_*))
      (fields
        (field (name Reference) R)
        (field (name Value) R_Small))
      (pins
        (pin (num 1) (name ~) (type passive))
        (pin (num 2) (name ~) (type passive))))
    (libpart (lib Switch) (part SW_Push_DPDT)
      (description "Momentary Switch, dual pole double throw")
      (docs ~)
      (fields
        (field (name Reference) SW)
        (field (name Value) SW_Push_DPDT))
      (pins
        (pin (num 1) (name A) (type passive))
        (pin (num 2) (name B) (type passive))
        (pin (num 3) (name C) (type passive))
        (pin (num 4) (name A) (type passive))
        (pin (num 5) (name B) (type passive))
        (pin (num 6) (name C) (type passive))))
    (libpart (lib Switches) (part SW_Push_Dual_tactile)
      (fields
        (field (name Reference) SW)
        (field (name Value) SW_Push_Dual_tactile))
      (pins
        (pin (num 1) (name 1) (type passive))
        (pin (num 2) (name 2) (type passive))
        (pin (num 3) (name 3) (type passive))
        (pin (num 4) (name 4) (type passive))))
    (libpart (lib Transistor_BJT) (part PZT3904)
      (aliases
        (alias BCP56))
      (description "0.2A Ic, 40V Vce, Small Signal NPN Transistor, SOT-223")
      (docs https://www.onsemi.com/pub/Collateral/2N3903-D.PDF)
      (footprints
        (fp SOT?223*))
      (fields
        (field (name Reference) Q)
        (field (name Value) PZT3904)
        (field (name Footprint) Package_TO_SOT_SMD:SOT-223-3_TabPin2))
      (pins
        (pin (num 1) (name B) (type input))
        (pin (num 2) (name C) (type passive))
        (pin (num 3) (name E) (type passive))
        (pin (num 4) (name C) (type passive)))))
  (libraries
    (library (logical 8-215079-4)
      (uri C:/Users/johcar/Downloads/8-215079-4/8-215079-4.lib))
    (library (logical Device)
      (uri "C:\\Program Files\\KiCad\\share\\kicad\\library/Device.lib"))
    (library (logical Switch)
      (uri "C:\\Program Files\\KiCad\\share\\kicad\\library/Switch.lib"))
    (library (logical Switches)
      (uri C:\Users\johcar\Documents\HW_dev\PT2065-10\Resources/Switches.lib))
    (library (logical Transistor_BJT)
      (uri "C:\\Program Files\\KiCad\\share\\kicad\\library/Transistor_BJT.lib")))
  (nets
    (net (code 1) (name "Net-(D12-Pad2)")
      (node (ref D12) (pin 2))
      (node (ref SW7) (pin 4)))
    (net (code 2) (name "Net-(D12-Pad1)")
      (node (ref D12) (pin 1))
      (node (ref SW2) (pin 4)))
    (net (code 3) (name Column2)
      (node (ref J1) (pin 6))
      (node (ref D12) (pin 3)))
    (net (code 4) (name "Net-(SW8-Pad1)")
      (node (ref SW8) (pin 1)))
    (net (code 5) (name "Net-(SW8-Pad3)")
      (node (ref SW8) (pin 3)))
    (net (code 6) (name Row2)
      (node (ref J1) (pin 4))
      (node (ref SW7) (pin 2))
      (node (ref SW10) (pin 2))
      (node (ref SW9) (pin 2))
      (node (ref SW8) (pin 2))
      (node (ref SW6) (pin 2))
      (node (ref R5) (pin 1)))
    (net (code 7) (name "Net-(SW3-Pad1)")
      (node (ref SW3) (pin 1)))
    (net (code 8) (name Row1)
      (node (ref R4) (pin 1))
      (node (ref SW4) (pin 2))
      (node (ref SW5) (pin 2))
      (node (ref J1) (pin 3))
      (node (ref SW2) (pin 2))
      (node (ref SW1) (pin 2))
      (node (ref SW3) (pin 2)))
    (net (code 9) (name "Net-(SW3-Pad3)")
      (node (ref SW3) (pin 3)))
    (net (code 10) (name "Net-(D13-Pad1)")
      (node (ref D13) (pin 1))
      (node (ref SW3) (pin 4)))
    (net (code 11) (name "Net-(D13-Pad2)")
      (node (ref D13) (pin 2))
      (node (ref SW8) (pin 4)))
    (net (code 12) (name Column3)
      (node (ref J1) (pin 7))
      (node (ref D13) (pin 3)))
    (net (code 13) (name "Net-(SW9-Pad1)")
      (node (ref SW9) (pin 1)))
    (net (code 14) (name "Net-(SW9-Pad3)")
      (node (ref SW9) (pin 3)))
    (net (code 15) (name "Net-(SW7-Pad3)")
      (node (ref SW7) (pin 3)))
    (net (code 16) (name "Net-(SW1-Pad3)")
      (node (ref SW1) (pin 3)))
    (net (code 17) (name "Net-(SW1-Pad1)")
      (node (ref SW1) (pin 1)))
    (net (code 18) (name "Net-(D11-Pad1)")
      (node (ref SW1) (pin 4))
      (node (ref D11) (pin 1)))
    (net (code 19) (name "Net-(D11-Pad2)")
      (node (ref D11) (pin 2))
      (node (ref SW6) (pin 4)))
    (net (code 20) (name "Net-(SW7-Pad1)")
      (node (ref SW7) (pin 1)))
    (net (code 21) (name "Net-(SW2-Pad1)")
      (node (ref SW2) (pin 1)))
    (net (code 22) (name "Net-(SW2-Pad3)")
      (node (ref SW2) (pin 3)))
    (net (code 23) (name "Net-(D15-Pad2)")
      (node (ref D15) (pin 2))
      (node (ref SW10) (pin 4)))
    (net (code 24) (name Column5)
      (node (ref D15) (pin 3))
      (node (ref J1) (pin 9)))
    (net (code 25) (name "Net-(D15-Pad1)")
      (node (ref SW5) (pin 4))
      (node (ref D15) (pin 1)))
    (net (code 26) (name +5V)
      (node (ref R4) (pin 2))
      (node (ref J1) (pin 10))
      (node (ref R5) (pin 2)))
    (net (code 27) (name "Net-(SW10-Pad1)")
      (node (ref SW10) (pin 1)))
    (net (code 28) (name "Net-(SW4-Pad1)")
      (node (ref SW4) (pin 1)))
    (net (code 29) (name "Net-(SW4-Pad3)")
      (node (ref SW4) (pin 3)))
    (net (code 30) (name "Net-(D14-Pad1)")
      (node (ref SW4) (pin 4))
      (node (ref D14) (pin 1)))
    (net (code 31) (name "Net-(D14-Pad2)")
      (node (ref D14) (pin 2))
      (node (ref SW9) (pin 4)))
    (net (code 32) (name Column4)
      (node (ref D14) (pin 3))
      (node (ref J1) (pin 8)))
    (net (code 33) (name "Net-(SW10-Pad3)")
      (node (ref SW10) (pin 3)))
    (net (code 34) (name "Net-(SW5-Pad1)")
      (node (ref SW5) (pin 1)))
    (net (code 35) (name "Net-(SW5-Pad3)")
      (node (ref SW5) (pin 3)))
    (net (code 36) (name LED)
      (node (ref D10) (pin 1))
      (node (ref Q1) (pin 4))
      (node (ref Q1) (pin 2)))
    (net (code 37) (name "Net-(SW11-Pad6)")
      (node (ref SW11) (pin 6)))
    (net (code 38) (name +24V)
      (node (ref J1) (pin 1))
      (node (ref R2) (pin 1)))
    (net (code 39) (name INDICATOR)
      (node (ref R1) (pin 1))
      (node (ref J1) (pin 2)))
    (net (code 40) (name "Net-(SW11-Pad5)")
      (node (ref SW11) (pin 5)))
    (net (code 41) (name "Net-(D2-Pad1)")
      (node (ref D2) (pin 1))
      (node (ref D3) (pin 2)))
    (net (code 42) (name "Net-(D3-Pad1)")
      (node (ref D3) (pin 1))
      (node (ref D4) (pin 2)))
    (net (code 43) (name "Net-(D5-Pad1)")
      (node (ref D5) (pin 1))
      (node (ref D6) (pin 2)))
    (net (code 44) (name "Net-(D4-Pad1)")
      (node (ref D5) (pin 2))
      (node (ref D4) (pin 1)))
    (net (code 45) (name "Net-(D6-Pad1)")
      (node (ref D6) (pin 1))
      (node (ref D7) (pin 2)))
    (net (code 46) (name "Net-(SW6-Pad3)")
      (node (ref SW6) (pin 3)))
    (net (code 47) (name "Net-(D1-Pad1)")
      (node (ref D2) (pin 2))
      (node (ref D1) (pin 1)))
    (net (code 48) (name "Net-(D1-Pad2)")
      (node (ref R2) (pin 2))
      (node (ref D1) (pin 2)))
    (net (code 49) (name "Net-(SW11-Pad1)")
      (node (ref SW11) (pin 1)))
    (net (code 50) (name KEYSWITCH)
      (node (ref SW11) (pin 2))
      (node (ref J1) (pin 13)))
    (net (code 51) (name "Net-(SW11-Pad4)")
      (node (ref SW11) (pin 4)))
    (net (code 52) (name "Net-(Q1-Pad1)")
      (node (ref R1) (pin 2))
      (node (ref Q1) (pin 1))
      (node (ref R3) (pin 1)))
    (net (code 53) (name "Net-(J1-Pad11)")
      (node (ref J1) (pin 11)))
    (net (code 54) (name "Net-(J1-Pad12)")
      (node (ref J1) (pin 12)))
    (net (code 55) (name GND)
      (node (ref J1) (pin 14))
      (node (ref SW11) (pin 3))
      (node (ref R3) (pin 2))
      (node (ref Q1) (pin 3)))
    (net (code 56) (name "Net-(SW6-Pad1)")
      (node (ref SW6) (pin 1)))
    (net (code 57) (name "Net-(D10-Pad2)")
      (node (ref D9) (pin 1))
      (node (ref D10) (pin 2)))
    (net (code 58) (name "Net-(D7-Pad1)")
      (node (ref D8) (pin 2))
      (node (ref D7) (pin 1)))
    (net (code 59) (name "Net-(D8-Pad1)")
      (node (ref D8) (pin 1))
      (node (ref D9) (pin 2)))
    (net (code 60) (name Column1)
      (node (ref D11) (pin 3))
      (node (ref J1) (pin 5)))))